…
``` r
library(notionR)

DATABASE_ID <- "00001111bbbbcccc"

data_project <- getNotionDatabase(
  secret = Sys.getenv("NOTION_API_SECRET"), 
  database = DATABASE_ID
)

data_project
```

    # A tibble: 26 × 70
       archived created_by.id      created_by.object created_time
       <chr>    <chr>              <chr>             <chr>       
     1 FALSE    xxxxx-7e0a-480… user              2023-11-22T…
     2 FALSE    xxxxx-7e0a-480… user              2023-10-28T…
     3 FALSE    xxxxx-7e0a-480… user              2023-10-02T…
     4 FALSE    xxxxx-7e0a-480… user              2023-09-30T…
     5 FALSE    xxxxx-7e0a-480… user              2023-09-23T…
     6 FALSE    xxxxx-7e0a-480… user              2023-09-23T…
     7 FALSE    xxxxx-7e0a-480… user              2023-09-23T…
     8 FALSE    xxxxx-7e0a-480… user              2023-09-23T…
     9 FALSE    xxxxx-7e0a-480… user              2023-09-08T…
    10 FALSE    xxxxx-7e0a-480… user              2023-08-26T…
    # ℹ 16 more rows
    # ℹ 66 more variables: icon.emoji <chr>, icon.type <chr>,
    #   id <chr>, last_edited_by.id <chr>,
    #   last_edited_by.object <chr>, last_edited_time <chr>,
    #   object <chr>, parent.database_id <chr>,
    #   parent.type <chr>, properties.Achievement.id <chr>,
    #   properties.Achievement.rollup.function <chr>, …
    # ℹ Use `print(n = ...)` to see more rows
…
